{
    "KPlugin": {
        "Authors": [
            {
                "Email": "mgraesslin@kde.org",
                "Name": "Martin Gräßlin",
                "Name[ar]": "Martin Gräßlin",
                "Name[az]": "Martin Gräßlin",
                "Name[ca]": "Martin Gräßlin",
                "Name[cs]": "Martin Gräßlin",
                "Name[de]": "Martin Gräßlin",
                "Name[en_GB]": "Martin Gräßlin",
                "Name[es]": "Martin Gräßlin",
                "Name[eu]": "Martin Gräßlin",
                "Name[fi]": "Martin Gräßlin",
                "Name[fr]": "Martin Gräßlin",
                "Name[hu]": "Martin Gräßlin",
                "Name[ia]": "Martin Gräßlin",
                "Name[id]": "Martin Gräßlin",
                "Name[it]": "Martin Gräßlin",
                "Name[ko]": "Martin Gräßlin",
                "Name[lt]": "Martin Gräßlin",
                "Name[nl]": "Martin Gräßlin",
                "Name[nn]": "Martin Gräßlin",
                "Name[pl]": "Martin Gräßlin",
                "Name[pt_BR]": "Martin Gräßlin",
                "Name[ro]": "Martin Gräßlin",
                "Name[ru]": "Martin Gräßlin",
                "Name[sk]": "Martin Gräßlin",
                "Name[sl]": "Martin Gräßlin",
                "Name[sv]": "Martin Gräßlin",
                "Name[ta]": "மார்ட்டின் கிராஸ்லின்",
                "Name[tr]": "Martin Gräßlin",
                "Name[uk]": "Martin Gräßlin",
                "Name[vi]": "Martin Gräßlin",
                "Name[x-test]": "xxMartin Gräßlinxx",
                "Name[zh_CN]": "Martin Gräßlin"
            }
        ],
        "Category": "Clipboard",
        "Description": "Provides access to the clipboard history",
        "Description[ar]": "اطّلع على تاريخ الحافظة",
        "Description[az]": "Mübadilə yaddaşı tarixçəsinə girirşi təmin edir",
        "Description[ca]": "Proporciona accés a l'historial del porta-retalls",
        "Description[cs]": "Poskytuje přístup k historii schránky",
        "Description[de]": "Ermöglicht den Zugriff auf den Verlauf der Zwischenablage",
        "Description[en_GB]": "Provides access to the clipboard history",
        "Description[es]": "Proporciona acceso al historial del portapapeles",
        "Description[eu]": "Arbeleko historialera sarbidea ematen du",
        "Description[fi]": "Tarjoaa pääsyn leikepöytähistoriaan",
        "Description[fr]": "Donne accès à l'historique du presse-papier",
        "Description[hu]": "Hozzáférést nyújt a vágólap előzményeihez",
        "Description[ia]": "Forni accesso al chronologia del area de transferentia",
        "Description[id]": "Menyediakan akses ke histori clipboard",
        "Description[it]": "Fornisce l'accesso alla cronologia degli appunti",
        "Description[ko]": "클립보드 기록 표시",
        "Description[lt]": "Suteikia prieigą prie iškarpinės istorijos",
        "Description[nl]": "Biedt toegang tot de geschiedenis van klembord",
        "Description[nn]": "Få tilgang til utklippstavle­loggen",
        "Description[pa]": "ਕਲਿੱਪਬੋਰਡ ਅਤੀਤ ਲਈ ਪਹੁੰਚ ਦਿੰਦਾ ਹੈ",
        "Description[pl]": "Zapewnia dostęp do historii schowka",
        "Description[pt_BR]": "Fornece acesso ao histórico da área de transferência",
        "Description[ro]": "Oferă acces la istoricul clipboard-ului",
        "Description[ru]": "Предоставляет доступ к журналу буфера обмена",
        "Description[sk]": "Poskytuje prístup k histórii schránky",
        "Description[sl]": "Ponuja dostop do zgodovine odložišča",
        "Description[sv]": "Ger tillgång till klippbordshistoriken",
        "Description[ta]": "பிடிப்புப்பலகையின் வரலாற்றை அணுக உதவும்",
        "Description[tr]": "Pano geçmişine erişim sağlar",
        "Description[uk]": "Надає доступ до журналу буфера обміну даними",
        "Description[vi]": "Cho phép truy cập lịch sử bảng nháp",
        "Description[x-test]": "xxProvides access to the clipboard historyxx",
        "Description[zh_CN]": "访问剪贴板历史",
        "EnabledByDefault": true,
        "FormFactors": [
            "desktop"
        ],
        "Icon": "klipper",
        "Id": "org.kde.plasma.clipboard",
        "License": "GPL-2.0+",
        "Name": "Clipboard",
        "Name[ar]": "الحافظة",
        "Name[ast]": "Cartafueyu",
        "Name[az]": "Mübadilə buferi",
        "Name[bs]": "Klipbord",
        "Name[ca@valencia]": "Porta-retalls",
        "Name[ca]": "Porta-retalls",
        "Name[cs]": "Schránka",
        "Name[da]": "Udklipsholder",
        "Name[de]": "Zwischenablage",
        "Name[el]": "Πρόχειρο",
        "Name[en_GB]": "Clipboard",
        "Name[es]": "Portapapeles",
        "Name[et]": "Lõikepuhver",
        "Name[eu]": "Arbela",
        "Name[fi]": "Leikepöytä",
        "Name[fr]": "Presse-papiers",
        "Name[gl]": "Portapapeis",
        "Name[he]": "לוח העתקה",
        "Name[hi]": "क्लिपबोर्ड",
        "Name[hsb]": "Zapisnik (Clipboard)",
        "Name[hu]": "Vágólap",
        "Name[ia]": "Area de transferentia",
        "Name[id]": "Clipboard",
        "Name[is]": "Klippispjald",
        "Name[it]": "Appunti",
        "Name[ja]": "クリップボード",
        "Name[ko]": "클립보드",
        "Name[lt]": "Iškarpinė",
        "Name[lv]": "Starpliktuve",
        "Name[ml]": "ക്ലിപ്ബോര്‍ഡ്",
        "Name[nb]": "Utklippstavle",
        "Name[nds]": "Twischenaflaag",
        "Name[nl]": "Klembord",
        "Name[nn]": "Utklippstavle",
        "Name[pa]": "ਕਲਿੱਪਬੋਰਡ",
        "Name[pl]": "Schowek",
        "Name[pt]": "Área de Transferência",
        "Name[pt_BR]": "Área de transferência",
        "Name[ro]": "Clipboard",
        "Name[ru]": "Буфер обмена",
        "Name[sk]": "Schránka",
        "Name[sl]": "Odložišče",
        "Name[sr@ijekavian]": "клипборд",
        "Name[sr@ijekavianlatin]": "klipbord",
        "Name[sr@latin]": "klipbord",
        "Name[sr]": "клипборд",
        "Name[sv]": "Klippbord",
        "Name[ta]": "பிடிப்புப்பலகை",
        "Name[tg]": "Ҳофизаи муваққатӣ",
        "Name[tr]": "Pano",
        "Name[uk]": "Буфер обміну",
        "Name[vi]": "Bảng nháp",
        "Name[x-test]": "xxClipboardxx",
        "Name[zh_CN]": "剪贴板",
        "Name[zh_TW]": "剪貼簿",
        "ServiceTypes": [
            "Plasma/Applet"
        ],
        "Version": "1.0"
    },
    "X-Plasma-API": "declarativeappletscript",
    "X-Plasma-MainScript": "ui/clipboard.qml",
    "X-Plasma-NotificationArea": "true",
    "X-Plasma-NotificationAreaCategory": "SystemServices"
}
