{
    "KPlugin": {
        "Authors": [
            {
                "Email": "mart@kde.org",
                "Name": "Marco Martin",
                "Name[ar]": "Marco Martin",
                "Name[az]": "Marco Martin",
                "Name[ca]": "Marco Martin",
                "Name[cs]": "Marco Martin",
                "Name[de]": "Marco Martin",
                "Name[en_GB]": "Marco Martin",
                "Name[es]": "Marco Martin",
                "Name[eu]": "Marco Martin",
                "Name[fi]": "Marco Martin",
                "Name[fr]": "Marco Martin",
                "Name[hu]": "Marco Martin",
                "Name[ia]": "Marco Martin",
                "Name[id]": "Marco Martin",
                "Name[it]": "Marco Martin",
                "Name[ko]": "Marco Martin",
                "Name[lt]": "Marco Martin",
                "Name[nl]": "Marco Martin",
                "Name[nn]": "Marco Martin",
                "Name[pa]": "ਮਾਰਕੋ ਮਾਰਟਿਨ",
                "Name[pl]": "Marco Martin",
                "Name[pt]": "Marco Martin",
                "Name[pt_BR]": "Marco Martin",
                "Name[ro]": "Marco Martin",
                "Name[ru]": "Marco Martin",
                "Name[sk]": "Marco Martin",
                "Name[sl]": "Marco Martin",
                "Name[sv]": "Marco Martin",
                "Name[ta]": "மார்க்கோ மார்ட்டின்",
                "Name[tr]": "Marco Martin",
                "Name[uk]": "Marco Martin",
                "Name[vi]": "Marco Martin",
                "Name[x-test]": "xxMarco Martinxx",
                "Name[zh_CN]": "Marco Martin"
            }
        ],
        "Category": "System Information",
        "Description": "System monitor Widget that shows the usage of the root partition",
        "Description[ar]": "أداة مراقبة النظام التي تعرض استخدام قسم الجذر",
        "Description[az]": "Sistem monitoru vidjeti kök bölməsinin istifadəsini göstərir",
        "Description[ca]": "Giny del monitor del sistema que mostra l'ús de la partició arrel",
        "Description[de]": "Systemmonitor-Miniprogramm, das die Verwendung des Basisordners anzeigt",
        "Description[en_GB]": "System monitor Widget that shows the usage of the root partition",
        "Description[es]": "Elemento gráfico del monitor del sistema que muestra el uso de la partición raíz",
        "Description[eu]": "Erro partizioaren erabilera erakusten duen sistema gainbegiratzeko trepeta",
        "Description[fi]": "Juuriosion käyttöasteen näyttävä järjestelmänvalvontasovelma",
        "Description[fr]": "Composant graphique de surveillance du système, affichant l'utilisation de la partition « Système ».",
        "Description[hu]": "Rendszermonitor elem, amely a root partíció használatát mutatja",
        "Description[ia]": "Widget de supervision de systema que monstra le uso del partition de root (radice)",
        "Description[id]": "Widget pemantau sistem yang menampilkan penggunaan partisi root",
        "Description[it]": "Oggetto di monitoraggio del sistema che mostra l'utilizzo della partizione radice",
        "Description[ko]": "루트 파티션 사용량을 표시하는 시스템 모니터 위젯",
        "Description[lt]": "Sistemos prižiūryklės valdiklis, kuris rodo šaknies skaidinio naudojimą",
        "Description[nl]": "Systeemmonitorwidget die het totale gebruik toont van de root-partitie",
        "Description[nn]": "System­overvaking som viser bruk av rotpartisjonen",
        "Description[pl]": "Element interfejsu, który pokazuje wykorzystanie głównej partycji",
        "Description[pt_BR]": "Widget monitor do sistema que mostra o uso da partição raiz",
        "Description[ro]": "Control grafic de monitorizare a sistemului ce arată utilizarea partiției root",
        "Description[ru]": "Мониторинг использования дискового пространства корневым разделом",
        "Description[sk]": "Miniaplikácia monitorovania systému, ktorá zobrazuje využitie koreňovej partície",
        "Description[sl]": "Gradnik sistemskega monitorja, ki prikazuje rabo korenske particije",
        "Description[sv]": "Grafisk systemövervakningskomponent som visar användning av rotpartitionen",
        "Description[ta]": "ரூட் வகிர்வின் பயன்பாட்டைக் காட்டும் பிளாஸ்மாய்ட்",
        "Description[tr]": "Kök bölüm kullanımını gösteren sistem izleyicisi araç takımı",
        "Description[uk]": "Віджет нагляду за системою, який показує використання кореневого розділу",
        "Description[vi]": "Phụ kiện giám sát hệ thống cho biết lượng dùng của phân vùng gốc",
        "Description[x-test]": "xxSystem monitor Widget that shows the usage of the root partitionxx",
        "Description[zh_CN]": "显示根分区使用情况的系统监视部件",
        "EnabledByDefault": true,
        "FormFactors": [
            "desktop"
        ],
        "Icon": "cpu",
        "Id": "org.kde.plasma.systemmonitor.diskusage",
        "License": "GPL-2.0+",
        "Name": "Disk Usage",
        "Name[ar]": "استخدام القرص",
        "Name[az]": "Disk sahəsnin İstifadəsi",
        "Name[ca]": "Ús del disc",
        "Name[cs]": "Zaplnění Disku",
        "Name[da]": "Diskforbrug",
        "Name[de]": "Datenträgerbelegung",
        "Name[en_GB]": "Disk Usage",
        "Name[es]": "Uso del disco duro",
        "Name[et]": "Kettakasutus",
        "Name[eu]": "Diskoaren erabilera",
        "Name[fi]": "Levyn käyttö",
        "Name[fr]": "Utilisation des disques",
        "Name[hi]": "डिस्क उपयोग",
        "Name[hsb]": "Wužiwanje tačele",
        "Name[hu]": "Lemezhasználat",
        "Name[ia]": "Uso de disco",
        "Name[id]": "Penggunaan Disk",
        "Name[it]": "Utilizzo disco",
        "Name[ko]": "디스크 사용량",
        "Name[lt]": "Disko naudojimas",
        "Name[ml]": "ഡ‍ിസ്ക് ഉപയോഗം",
        "Name[nl]": "Schijfgebruik",
        "Name[nn]": "Diskbruk",
        "Name[pa]": "ਡਿਸਕ ਥਾਂ ਦੀ ਵਰਤੋਂ",
        "Name[pl]": "Wykorzystanie dysku",
        "Name[pt]": "Utilização do Disco",
        "Name[pt_BR]": "Uso do disco",
        "Name[ro]": "Utilizare disc",
        "Name[ru]": "Использование дискового пространства",
        "Name[sk]": "Využitie disku",
        "Name[sl]": "Uporaba diska",
        "Name[sv]": "Diskanvändning",
        "Name[ta]": "வட்டு பயன்பாட்டு",
        "Name[tg]": "Истифодабарии диск",
        "Name[tr]": "Disk Kullanımı",
        "Name[uk]": "Використання диска",
        "Name[vi]": "Lượng dùng đĩa",
        "Name[x-test]": "xxDisk Usagexx",
        "Name[zh_CN]": "磁盘使用情况",
        "Name[zh_TW]": "磁碟用量",
        "ServiceTypes": [
            "Plasma/Applet"
        ],
        "Version": "1.0",
        "Website": "https://www.kde.org/plasma-desktop"
    },
    "X-Plasma-API": "declarativeappletscript",
    "X-Plasma-MainScript": "ui/main.qml",
    "X-Plasma-Provides": [
        "org.kde.plasma.systemmonitor"
    ],
    "X-Plasma-RootPath": "org.kde.plasma.systemmonitor"
}
